<?xml version="1.0" encoding="utf-8"?>
<svg viewBox="0 0 36 27" xmlns="http://www.w3.org/2000/svg">
  <g stroke="none" stroke-width="1" fill="none" fill-rule="evenodd">
    <g  transform="translate(-2465.000000, -935.000000)" fill="#00EBD2">
      <g  transform="translate(2465.370370, 935.555556)">
        <polygon points="11.1145761 25.9259259 0 14.6638352 4.16678944 10.6235186 11.3624499 17.9142296 31.3492336 0 35.2592593 4.28600095" style="fill: rgb(255, 255, 255);"/>
      </g>
    </g>
  </g>
</svg>