<?xml version="1.0" encoding="utf-8"?>
<svg height="170.66667" viewBox="0 0 243.03999 170.66667" width="243.03999" xmlns="http://www.w3.org/2000/svg">
  <g fill="#ff6923" transform="matrix(-1.3333333 0 0 1.3333333 243.03999 .000008)">
    <path d="m143.051.039h39.228v19.615h-39.228z" style="fill: rgb(255, 255, 255);"/>
    <path d="m143.051 108.346h39.228v19.615h-39.228z" style="fill: rgb(255, 255, 255);"/>
    <path d="m162.666.039h19.614v127.922h-19.614z" style="fill: rgb(255, 255, 255);"/>
    <path d="m0 .039h39.229v19.615h-39.229z" style="fill: rgb(255, 255, 255);"/>
    <path d="m0 108.346h39.229v19.615h-39.229z" style="fill: rgb(255, 255, 255);"/>
    <path d="m0 .039h19.615v127.922h-19.615z" style="fill: rgb(255, 255, 255);"/>
    <path d="m81.333 0h19.614v91.381h-19.614z" style="fill: rgb(255, 255, 255);"/>
    <path d="m81.333 108.385h19.614v19.615h-19.614z" style="fill: rgb(255, 255, 255);"/>
  </g>
</svg>