<?xml version="1.0" encoding="utf-8"?>
<svg viewBox="0 0 500 500" xmlns="http://www.w3.org/2000/svg">
  <rect y="144.835" width="500" height="72.418" transform="matrix(0.707107, 0.707107, -0.707107, 0.707107, 193.205338, -63.401524)" style=""/>
  <rect x="141.898" width="70.949" height="500" transform="matrix(0.707107, 0.707107, -0.707107, 0.707107, 289.099518, -56.727177)" style=""/>
</svg>