<?xml version="1.0" encoding="utf-8"?>
<svg height="170.66667" viewBox="0 0 175.92 170.66667" width="175.92" xmlns="http://www.w3.org/2000/svg">
  <clipPath id="a">
    <path d="m0 128h131.94v-128h-131.94z"/>
  </clipPath>
  <g clip-path="url(#a)" transform="matrix(1.3333333 0 0 -1.3333333 0 170.66667)">
    <path d="m0 0c-23.069 0-41.838 18.769-41.838 41.838s18.769 41.838 41.838 41.838 41.838-18.769 41.838-41.838-18.769-41.838-41.838-41.838m74.473-17.741-26.903 27.374c6.243 9.192 9.897 20.279 9.897 32.205 0 31.687-25.78 57.467-57.467 57.467s-57.467-25.78-57.467-57.467c0-31.688 25.78-57.467 57.467-57.467 14.13 0 27.076 5.136 37.095 13.626l26.232-26.692z" transform="translate(57.4668 28.6953)" style="fill: rgb(130, 0, 160);"/>
  </g>
</svg>