<?xml version="1.0" encoding="UTF-8"?>
<svg width="114px" height="114px" viewBox="0 0 114 114" version="1.1" xmlns="http://www.w3.org/2000/svg" xmlns:xlink="http://www.w3.org/1999/xlink">
    <title>B275AF6E-D476-43F2-ABA5-D099E56BA88C@svg</title>
    <g id="A4-Amélioration-UI-UX" stroke="none" stroke-width="1" fill="none" fill-rule="evenodd">
        <g id="A4-Fonction-explorer" transform="translate(-1058.000000, -264.000000)">
            <g id="icon-explore-rond" transform="translate(1058.000000, 264.000000)">
                <circle id="Oval-Copy-8" fill="#FFB400" cx="57" cy="57" r="57"></circle>
                <g id="icon-explore" transform="translate(23.000000, 33.000000)" fill="#FFFFFF" fill-rule="nonzero">
                    <polygon id="‘-copy-3" points="38.0840659 33 38.0840659 22.2307692 34.7873626 22.2307692 36.5456044 13 28.9265568 13 26.142674 22.010989 26.142674 33"></polygon>
                    <path d="M22.7826087,58 L29.7391304,54.5018821 C26.4347826,49.2689251 23.8115942,44.1212882 21.8695652,39.0589711 C19.9275362,33.9966541 18.9565217,29.2187369 18.9565217,24.7252196 C18.9565217,21.8812212 19.3333333,18.909243 20.0869565,15.8092848 C20.8405797,12.7093266 21.7826087,9.7231284 22.9130435,6.85069009 C24.0434783,3.97825178 25.2463768,1.33333333 26.5217391,-1.08406524 C27.7971014,-3.50146382 28.9565217,-5.44960268 30,-6.92848181 L30,-6.92848181 L22.6086957,-10 C20.8695652,-7.09912171 19.2318841,-4.2124634 17.6956522,-1.34002509 C16.1594203,1.53241322 14.826087,4.40485153 13.6956522,7.27728984 C12.5652174,10.1497281 11.6666667,13.0079465 11,15.8519448 C10.3333333,18.6959431 10,21.5683814 10,24.4692597 C10,30.1572564 11.2173913,35.831033 13.6521739,41.4905897 C16.0869565,47.1501464 19.1304348,52.6532831 22.7826087,58 L22.7826087,58 Z M45.2489083,58 C48.9170306,52.6532831 51.9592431,47.1501464 54.3755459,41.4905897 C56.7918486,35.831033 58,30.1572564 58,24.4692597 C58,21.5683814 57.6652111,18.6959431 56.9956332,15.8519448 C56.3260553,13.0079465 55.4235808,10.1497281 54.2882096,7.27728984 C53.1528384,4.40485153 51.8136827,1.53241322 50.2707424,-1.34002509 C48.727802,-4.2124634 47.0829694,-7.09912171 45.3362445,-10 L45.3362445,-10 L38,-6.92848181 C38.9898108,-5.44960268 40.125182,-3.50146382 41.4061135,-1.08406524 C42.6870451,1.33333333 43.8951965,3.97825178 45.0305677,6.85069009 C46.1659389,9.7231284 47.1266376,12.7093266 47.9126638,15.8092848 C48.69869,18.909243 49.0917031,21.8812212 49.0917031,24.7252196 C49.0917031,29.2187369 48.1018923,33.9966541 46.1222707,39.0589711 C44.1426492,44.1212882 41.4934498,49.2689251 38.1746725,54.5018821 L38.1746725,54.5018821 L45.2489083,58 Z" id="()-copy-3" transform="translate(34.000000, 24.000000) rotate(-270.000000) translate(-34.000000, -24.000000) "></path>
                </g>
            </g>
        </g>
    </g>
</svg>