{
  "canonicalForm": {
    "writtenRep": "fauter",
    "places": {
      "edges": [],
      "__typename": "PlaceInterfaceConnection"
    },
    "__typename": "Form"
  },
  "partOfSpeech": {
    "prefLabel": "verbe",
    "__typename": "Concept"
  },
  "__typename": "Word",
  "entry": {
    "lexicographicResource": {
      "prefLabel": "Inventaire des particularités lexicales du français en Afrique noire",
      "altLabel": "Inv",
      "__typename": "LexicographicResource"
    },
    "__typename": "Entry"
  }
}