// Jest Snapshot v1, https://goo.gl/fbAQLP

exports[`renders snapshot 1`] = `
<div>
  <div>
    <div
      class="makeStyles-secondaryTitle-4"
    >
      12 Définitions
    </div>
    <div
      class="lexicalSenses"
    >
      <div
        class="container yellow lexicalSense"
        data-testid="lexical-sense-excerpt/inv/lexical-sense/1234"
      >
        <div
          class="MuiGrid-root MuiGrid-container MuiGrid-justify-content-xs-space-between"
        >
          <div
            class="MuiGrid-root countriesRow MuiGrid-item MuiGrid-grid-xs-9"
          >
            <div
              class="countries"
            >
              RDC
            </div>
          </div>
          <div
            class="MuiGrid-root sources MuiGrid-item MuiGrid-grid-xs-3"
          >
            Source : 
            Inv
          </div>
        </div>
        <a
          aria-label="Définition détaillée"
          class="greyText"
          href="/form/affairé/sense/inv%2Flexical-sense%2F1234"
          role="link"
        >
          <div
            class="pos"
          >
            nom
          </div>
          <div
            class="description"
          >
            <div
              class="text"
              data-testid="purified-html-container"
            >
              Affairiste
            </div>
          </div>
          <div
            class="descriptionOverlay"
          />
        </a>
        <a
          aria-label="Définition détaillée"
          href="/form/affairé/sense/inv%2Flexical-sense%2F1234"
          role="link"
        >
          <div
            class="rightEnd"
          >
            <b>
              [
            </b>
            ...
            <b>
              ]
            </b>
          </div>
        </a>
      </div>
      <div
        class="container yellow lexicalSense"
        data-testid="lexical-sense-excerpt/inv/lexical-sense/45689"
      >
        <div
          class="MuiGrid-root MuiGrid-container MuiGrid-justify-content-xs-space-between"
        >
          <div
            class="MuiGrid-root countriesRow MuiGrid-item MuiGrid-grid-xs-9"
          >
            <div
              class="countries"
            >
              Cameroun
            </div>
          </div>
          <div
            class="MuiGrid-root sources MuiGrid-item MuiGrid-grid-xs-3"
          >
            Source : 
            Inv
          </div>
        </div>
        <a
          aria-label="Définition détaillée"
          class="greyText"
          href="/form/affairé/sense/inv%2Flexical-sense%2F45689"
          role="link"
        >
          <div
            class="pos"
          >
            nom
          </div>
          <div
            class="description"
          >
            <div
              class="text"
              data-testid="purified-html-container"
            >
              Grand séducteur, coureur de jupons test
            </div>
          </div>
          <div
            class="descriptionOverlay"
          />
        </a>
        <a
          aria-label="Définition détaillée"
          href="/form/affairé/sense/inv%2Flexical-sense%2F45689"
          role="link"
        >
          <div
            class="rightEnd"
          >
            <b>
              [
            </b>
            ...
            <b>
              ]
            </b>
          </div>
        </a>
      </div>
      <div
        class="container gray lexicalSense"
        data-testid="lexical-sense-excerpt/wikt/entry/1234/en/1/ls/1"
      >
        <div
          class="MuiGrid-root MuiGrid-container MuiGrid-justify-content-xs-space-between"
        >
          <div
            class="MuiGrid-root countriesRow MuiGrid-item MuiGrid-grid-xs-9"
          >
            <div
              class="countries"
            >
              Monde francophone
            </div>
          </div>
          <div
            class="MuiGrid-root sources MuiGrid-item MuiGrid-grid-xs-3"
          >
            Source : 
            Wikt
          </div>
        </div>
        <a
          aria-label="Définition détaillée"
          class="greyText"
          href="/form/affairé/sense/wikt%2Fentry%2F1234%2Fen%2F1%2Fls%2F1"
          role="link"
        >
          <div
            class="pos"
          >
            adjectif
          </div>
          <div
            class="description"
          >
            <div
              class="text"
              data-testid="purified-html-container"
            >
              Qui a bien des affaires, qui est occupé.
            </div>
          </div>
          <div
            class="descriptionOverlay"
          />
        </a>
        <a
          aria-label="Définition détaillée"
          href="/form/affairé/sense/wikt%2Fentry%2F1234%2Fen%2F1%2Fls%2F1"
          role="link"
        >
          <div
            class="rightEnd"
          >
            <b>
              [
            </b>
            ...
            <b>
              ]
            </b>
          </div>
        </a>
      </div>
    </div>
    <div
      class="makeStyles-centerPagination-16"
    >
      <nav
        aria-label="pagination navigation"
        class="MuiPagination-root"
      >
        <ul
          class="MuiPagination-ul makeStyles-ul-18"
        >
          <li>
            <button
              aria-label="Go to previous page"
              class="MuiButtonBase-root MuiPaginationItem-root MuiPaginationItem-page Mui-disabled Mui-disabled"
              disabled=""
              tabindex="-1"
              type="button"
            >
              <svg
                aria-hidden="true"
                class="MuiSvgIcon-root MuiPaginationItem-icon"
                focusable="false"
                viewBox="0 0 24 24"
              >
                <path
                  d="M15.41 7.41L14 6l-6 6 6 6 1.41-1.41L10.83 12z"
                />
              </svg>
            </button>
          </li>
          <li>
            <button
              aria-current="true"
              aria-label="page 1"
              class="MuiButtonBase-root MuiPaginationItem-root MuiPaginationItem-page Mui-selected"
              tabindex="0"
              type="button"
            >
              1
              <span
                class="MuiTouchRipple-root"
              />
            </button>
          </li>
          <li>
            <button
              aria-label="Go to page 2"
              class="MuiButtonBase-root MuiPaginationItem-root MuiPaginationItem-page"
              tabindex="0"
              type="button"
            >
              2
              <span
                class="MuiTouchRipple-root"
              />
            </button>
          </li>
          <li>
            <button
              aria-label="Go to next page"
              class="MuiButtonBase-root MuiPaginationItem-root MuiPaginationItem-page"
              tabindex="0"
              type="button"
            >
              <svg
                aria-hidden="true"
                class="MuiSvgIcon-root MuiPaginationItem-icon"
                focusable="false"
                viewBox="0 0 24 24"
              >
                <path
                  d="M10 6L8.59 7.41 13.17 12l-4.58 4.59L10 18l6-6z"
                />
              </svg>
              <span
                class="MuiTouchRipple-root"
              />
            </button>
          </li>
        </ul>
      </nav>
    </div>
    <div
      class="makeStyles-secondaryTitle-4"
    >
      Voir aussi
    </div>
    <div
      class="container"
    >
      <h4
        class="title"
      >
        Voir aussi
      </h4>
      <p>
        <span
          class="inlineTitle"
        >
          Vocabulaire apparenté
           : 
        </span>
        <a
          aria-label="Lancer une recherche sur traiteur"
          href="/form/traiteur"
          role="link"
        >
          traiteur
        </a>
      </p>
      <p>
        <span
          class="inlineTitle"
        >
          Variante graphique
           : 
        </span>
        <a
          aria-label="Lancer une recherche sur aff"
          href="/form/aff"
          role="link"
        >
          aff
        </a>
      </p>
      <p>
        <span
          class="inlineTitle"
        >
          Mots dérivés
           : 
        </span>
        <a
          aria-label="Lancer une recherche sur affaire"
          href="/form/affaire"
          role="link"
        >
          affaire
        </a>
      </p>
    </div>
  </div>
</div>
`;
